…
``` r
get_size_from_lot(
      lot = lot_testing,
      id_var = lop_id,
      type_var = type_lot,
      nb_var = lop_effectif,
      min_var = lop_longueur_specimens_taille_mini,
      max_var = lop_longueur_specimens_taille_maxi,
      species = species,
      measure = ind_measure_testing,
      measure_id_var = mei_lop_id,
      size_var = mei_taille)
#> incorrect lot G have been filtered
#> # A tibble: 3,530 x 3
#>     lop_id species fish      
#>      <int> <chr>   <list>    
#>  1 2141822 VAI     <dbl [6]> 
#>  2 4298431 BAF     <dbl [3]> 
#>  3 4390067 BAF     <dbl [2]> 
#>  4 4152850 TRF     <dbl [15]>
#>  5 2461191 TRF     <dbl [11]>
#>  6 2276025 ABL     <dbl [3]> 
#>  7 2395932 ABL     <dbl [11]>
#>  8 3153703 CHE     <dbl [8]> 
#>  9 4736608 PSR     <dbl [4]> 
#> 10 2398199 TRF     <dbl [16]>
#> # … with 3,520 more rows
```
